Data transformation
…
You might be surprised by this pattern: why do diamonds with better clarity have lower prices? Well see why this is the case and what to do about it in removing trend.

Supply additional variables to group_by() to create groups based on more than one variable. The next example shows how we can compute (by hand) a frequency polygon that shows how cut and depth interact. The special summary function n() counts the number of observations in each group.

cut_depth <- summarise(group_by(diamonds, cut, depth), n = n())
cut_depth <- filter(cut_depth, depth > 55, depth < 70)
cut_depth
#> Source: local data frame [455 x 3]
#> Groups: cut [5]
#> 
#>     cut depth     n
#>   <ord> <dbl> <int>
#> 1  Fair  55.1     3
#> 2  Fair  55.2     6
#> 3  Fair  55.3     5
#> 4  Fair  55.4     2
#> 5  Fair  55.5     3
#> 6  Fair  55.6     4
#> # ... with 449 more rows
…
